…
GM: Before/after sales in 2021 dollars

``` r
gn_mgmt %>% 
  group_by(recordid) %>%
  summarize(bought_for = first(external_transaction),
            constcost = mean(constcost),
            n_post_sales = n_distinct(post_sales),
            sold_for = sold_for,
            mean_sold_for = mean_sold_for,
            pre_post_diff = sold_for - bought_for,
            avg_units = mean(unit_estimate))
```

    ## # A tibble: 80 × 8
    ## # Groups:   recordid [28]
    ##    recordid bought_for constcost n_post_sales sold_for mean_so…¹ pre_p…² avg_u…³
    ##    <chr>         <dbl>     <dbl>        <int>    <dbl>     <dbl>   <dbl>   <dbl>
    ##  1 00023679     611293     20000           19       NA       NA  NA            4
    ##  2 00023679     611293     20000           19       NA       NA  NA            4
    ##  3 00023679     611293     20000           19       NA       NA  NA            4
    ##  4 00023679     611293     20000           19 12070617   670590.  1.15e7       4
    ##  5 00023679     611293     20000           19 12070617   670590.  1.15e7       4
    ##  6 00023679     611293     20000           19 12070617   670590.  1.15e7       4
    ##  7 00023679     611293     20000           19 12070617   670590.  1.15e7       4
    ##  8 00023679     611293     20000           19 12070617   670590.  1.15e7       4
    ##  9 00023679     611293     20000           19 12070617   670590.  1.15e7       4
    ## 10 00023679     611293     20000           19 12070617   670590.  1.15e7       4
    ## # … with 70 more rows, and abbreviated variable names ¹​mean_sold_for,
    ## #   ²​pre_post_diff, ³​avg_units
    ## # ℹ Use `print(n = ...)` to see more rows
…
